{
  "project_info": {
    "project_number": "177941065188",
    "firebase_url": "https://pizzatruck-ed1d4.firebaseio.com",
    "project_id": "pizzatruck-ed1d4",
    "storage_bucket": "pizzatruck-ed1d4.appspot.com"
  },
  "client": [
    {
      "client_info": {
        "mobilesdk_app_id": "1:177941065188:android:45b7c7bc5e631e1196ebf1",
        "android_client_info": {
          "package_name": "com.nerallan.admin"
        }
      },
      "oauth_client": [
        {
          "client_id": "177941065188-k59pq7samf3p3hm8a0enlofl8sdma37b.apps.googleusercontent.com",
          "client_type": 1,
          "android_info": {
            "package_name": "com.nerallan.admin",
            "certificate_hash": "c00e0701fb14fef2e79d038bcea1c958cd1d216e"
          }
        },
        {
          "client_id": "177941065188-hcau5un3q71i0uarp014mukgi91063qh.apps.googleusercontent.com",
          "client_type": 3
        }
      ],
      "api_key": [
        {
          "current_key": "AIzaSyBNlZzkgQyj-VQ0u6zA9_khy8EJu_uwPOQ"
        }
      ],
      "services": {
        "appinvite_service": {
          "other_platform_oauth_client": [
            {
              "client_id": "177941065188-hcau5un3q71i0uarp014mukgi91063qh.apps.googleusercontent.com",
              "client_type": 3
            }
          ]
        }
      }
    },
    {
      "client_info": {
        "mobilesdk_app_id": "1:177941065188:android:06f27a7c33327f8896ebf1",
        "android_client_info": {
          "package_name": "com.nerallan.pizzatruck"
        }
      },
      "oauth_client": [
        {
          "client_id": "177941065188-hcau5un3q71i0uarp014mukgi91063qh.apps.googleusercontent.com",
          "client_type": 3
        }
      ],
      "api_key": [
        {
          "current_key": "AIzaSyBNlZzkgQyj-VQ0u6zA9_khy8EJu_uwPOQ"
        }
      ],
      "services": {
        "appinvite_service": {
          "other_platform_oauth_client": [
            {
              "client_id": "177941065188-hcau5un3q71i0uarp014mukgi91063qh.apps.googleusercontent.com",
              "client_type": 3
            }
          ]
        }
      }
    }
  ],
  "configuration_version": "1"
}